{
	"info": {
		"_postman_id": "ff4ea04b-3916-4b10-94ec-39eccee595f5",
		"name": "Cidenet",
		"schema": "https://schema.getpostman.com/json/collection/v2.1.0/collection.json",
		"_exporter_id": "14567573"
	},
	"item": [
		{
			"name": "Crear empleado",
			"request": {
				"method": "POST",
				"header": [],
				"body": {
					"mode": "raw",
					"raw": "{\r\n    \"firstName\" : \"Heisen Andres\",\r\n    \"lastName\" : \"Ramos\",\r\n    \"otherNames\" : \"Perafan\",\r\n    \"country\" : \"co\",\r\n    \"email\" : \"\"\r\n}",
					"options": {
						"raw": {
							"language": "json"
						}
					}
				},
				"url": {
					"raw": "http://localhost:8080/employee/register",
					"protocol": "http",
					"host": [
						"localhost"
					],
					"port": "8080",
					"path": [
						"employee",
						"register"
					]
				}
			},
			"response": []
		},
		{
			"name": "Eliminar empleado",
			"request": {
				"method": "DELETE",
				"header": [],
				"url": {
					"raw": "http://localhost:8080/employee/delete?idEmployee=1",
					"protocol": "http",
					"host": [
						"localhost"
					],
					"port": "8080",
					"path": [
						"employee",
						"delete"
					],
					"query": [
						{
							"key": "idEmployee",
							"value": "1"
						}
					]
				}
			},
			"response": []
		},
		{
			"name": "Consultar empleados",
			"request": {
				"method": "GET",
				"header": [],
				"url": {
					"raw": "http://localhost:8080/employee/consult",
					"protocol": "http",
					"host": [
						"localhost"
					],
					"port": "8080",
					"path": [
						"employee",
						"consult"
					]
				}
			},
			"response": []
		}
	]
}